TH1: Geospatial Analytics for Social Good – IS415 - Kendrick
…
acled_mya_sf <- acled_mya_sf %>%
    mutate(event_date = dmy(event_date)) %>%
    mutate(DayOfYear = yday(event_date)) %>%
    mutate(Month_num = format(event_date, "%Y-%m")) %>%  # Year-Month format
    mutate(Month_fac = factor(format(event_date, "%B %Y"))) %>% # Full month
    mutate(Quarter = paste0(year(event_date), "-", quarter(event_date), "Q"))  # Quarter format
acled_mya_sf

Simple feature collection with 47832 features and 33 fields
Geometry type: POINT
Dimension:     XY
Bounding box:  xmin: -207135 ymin: 1103500 xmax: 640934.5 ymax: 3042960
Projected CRS: WGS 84 / UTM zone 47N
# A tibble: 47,832 × 34
   event_id_cnty event_date  year time_precision disorder_type        event_type
 * <chr>         <date>     <dbl>          <dbl> <chr>                <chr>     
 1 MMR56099      2023-12-31  2023              1 Political violence   Explosion…
 2 MMR56222      2023-12-31  2023              1 Political violence   Explosion…
 3 MMR56370      2023-12-31  2023              1 Political violence   Battles   
 4 MMR56376      2023-12-31  2023              1 Demonstrations       Protests  
 5 MMR56380      2023-12-31  2023              1 Strategic developme… Strategic…
 6 MMR56869      2023-12-31  2023              1 Strategic developme… Strategic…
 7 MMR56871      2023-12-31  2023              1 Political violence   Battles   
 8 MMR56873      2023-12-31  2023              1 Political violence   Explosion…
 9 MMR56874      2023-12-31  2023              1 Political violence   Battles   
10 MMR56876      2023-12-31  2023              1 Political violence   Violence …
# ℹ 47,822 more rows
# ℹ 28 more variables: sub_event_type <chr>, actor1 <chr>, assoc_actor_1 <chr>,
#   inter1 <dbl>, actor2 <chr>, assoc_actor_2 <chr>, inter2 <dbl>,
#   interaction <dbl>, civilian_targeting <chr>, iso <dbl>, region <chr>,
#   country <chr>, admin1 <chr>, admin2 <chr>, admin3 <chr>, location <chr>,
#   geo_precision <dbl>, source <chr>, source_scale <chr>, notes <chr>,
#   fatalities <dbl>, tags <chr>, timestamp <dbl>, geometry <POINT [m]>, …
…
