TH2: Application of Geospatial Analysis Methods to Discover Thailand Drug Abuse at the Province Level – IS415 - Kendrick
…
thailand_drug <- read_csv("data/aspatial/thai_drug_offenses_2017_2022.csv") %>% select(fiscal_year, types_of_drug_offenses, no_cases, province_en)

Rows: 7392 Columns: 5
── Column specification ────────────────────────────────────────────────────────
Delimiter: ","
chr (3): types_of_drug_offenses, province_th, province_en
dbl (2): fiscal_year, no_cases

ℹ Use `spec()` to retrieve the full column specification for this data.
ℹ Specify the column types or set `show_col_types = FALSE` to quiet this message.

thailand_drug

# A tibble: 7,392 × 4
   fiscal_year types_of_drug_offenses no_cases province_en             
         <dbl> <chr>                     <dbl> <chr>                   
 1        2017 drug_use_cases            11871 Bangkok                 
 2        2017 drug_use_cases              200 Chai Nat                
 3        2017 drug_use_cases              553 Nonthaburi              
 4        2017 drug_use_cases              450 Pathum Thani            
 5        2017 drug_use_cases              378 Phra Nakhon Si Ayutthaya
 6        2017 drug_use_cases              727 Loburi                  
 7        2017 drug_use_cases              820 Samut Prakan            
 8        2017 drug_use_cases               69 Saraburi                
 9        2017 drug_use_cases              127 Sing Buri               
10        2017 drug_use_cases              208 Ang Thong               
# ℹ 7,382 more rows
…
